School Shootings in the United States
…
Next, we will make some data visualizations.

Yearly Shootings

We would like to create a plot of the number of school shootings per year.

To do this, we will count the number of school shootings per year using the count() function from the dplyr package. We specify that we want to count the unique values of the Date_year variable and name the new column Shootings.

shootings_per_year <-
  shooting_data %>%
  count(Date_year, name = "Shootings")

shootings_per_year

# A tibble: 51 x 2
   Date_year Shootings
       <dbl>     <int>
 1      1970        20
 2      1971        21
 3      1972        18
 4      1973        18
 5      1974        16
 6      1975        14
 7      1976        11
 8      1977        16
 9      1978        16
10      1979        14
# ... with 41 more rows
…
values_to - which specifies the name of the new column that will be created that will contain the values from the columns you are collapsing

To specify that we want to collapse all the columns that have year values, we can choose all those except the Date_year variable by using the - negative operator.

per_year <-
  full_join(shootings_per_year, deaths_per_year)

per_year %<>%
  pivot_longer(cols = -Date_year,
               values_to = "events",
               names_to = "id")

per_year

# A tibble: 102 x 3
   Date_year id        events
       <dbl> <chr>      <dbl>
 1      1970 Shootings     20
 2      1970 Deaths         8
 3      1971 Shootings     21
 4      1971 Deaths         9
 5      1972 Shootings     18
 6      1972 Deaths         6
 7      1973 Shootings     18
 8      1973 Deaths         6
 9      1974 Shootings     16
10      1974 Deaths        12
# ... with 92 more rows

Hmmm, we see the data type of the id column is a character (<chr>). Let’s convert it to a factor, so that the order in which Shootings and Deaths appear is the order in which they appear first rather than by alphabetical order (which is default).

Using the fct_inorder() function from the forcats package, we can easily reorder the id variable`.

per_year %<>%
  mutate(id = forcats::fct_inorder(id))

per_year

# A tibble: 102 x 3
   Date_year id        events
       <dbl> <fct>      <dbl>
 1      1970 Shootings     20
 2      1970 Deaths         8
 3      1971 Shootings     21
 4      1971 Deaths         9
 5      1972 Shootings     18
 6      1972 Deaths         6
 7      1973 Shootings     18
 8      1973 Deaths         6
 9      1974 Shootings     16
10      1974 Deaths        12
# ... with 92 more rows
…
Yearly Cumulative Shootings

Now let’s make another plot of the cumulative deaths each year including those of the previous years. In this case we can use the shootings_per_year object that we previously made.

shootings_per_year

# A tibble: 51 x 2
   Date_year Shootings
       <dbl>     <int>
 1      1970        20
 2      1971        21
 3      1972        18
 4      1973        18
 5      1974        16
 6      1975        14
 7      1976        11
 8      1977        16
 9      1978        16
10      1979        14
# ... with 41 more rows

However, we want to add a new variable using the mutate function called n_cum_sum by using the cumsum() function to calculate a cumulative sum based on the yearly count.

shootings_per_year_cum <- shootings_per_year%>%
    mutate(Shootings = cumsum(Shootings))

deaths_per_year_cum <- deaths_per_year%>%
    mutate(Deaths = cumsum(Deaths))

shootings_per_year_cum

# A tibble: 51 x 2
   Date_year Shootings
       <dbl>     <int>
 1      1970        20
 2      1971        41
 3      1972        59
 4      1973        77
 5      1974        93
 6      1975       107
 7      1976       118
 8      1977       134
 9      1978       150
10      1979       164
# ... with 41 more rows

Next, we join these tables together

per_year_cum <-
  full_join(shootings_per_year_cum, deaths_per_year_cum)

per_year_cum %<>%
  pivot_longer(cols = c(Shootings,Deaths ),
               values_to = "events",
               names_to = "id")

per_year_cum

# A tibble: 102 x 3
   Date_year id        events
       <dbl> <chr>      <dbl>
 1      1970 Shootings     20
 2      1970 Deaths         8
 3      1971 Shootings     41
 4      1971 Deaths        17
 5      1972 Shootings     59
 6      1972 Deaths        23
 7      1973 Shootings     77
 8      1973 Deaths        29
 9      1974 Shootings     93
10      1974 Deaths        41
# ... with 92 more rows
…
